{
  "cordova-plugin-app-version": {
    "source": {
      "type": "registry",
      "id": "cordova-plugin-app-version@^0.1.9"
    },
    "is_top_level": true,
    "variables": {}
  },
  "cordova-plugin-statusbar": {
    "source": {
      "type": "registry",
      "id": "cordova-plugin-statusbar@^2.4.3"
    },
    "is_top_level": true,
    "variables": {}
  },
  "cordova-plugin-device": {
    "source": {
      "type": "registry",
      "id": "cordova-plugin-device@^2.0.3"
    },
    "is_top_level": true,
    "variables": {}
  },
  "cordova-plugin-splashscreen": {
    "source": {
      "type": "registry",
      "id": "cordova-plugin-splashscreen@^5.0.3"
    },
    "is_top_level": true,
    "variables": {}
  },
  "cordova-plugin-ionic-keyboard": {
    "source": {
      "type": "registry",
      "id": "cordova-plugin-ionic-keyboard@^2.2.0"
    },
    "is_top_level": true,
    "variables": {}
  },
  "cordova-plugin-geolocation": {
    "source": {
      "type": "registry",
      "id": "cordova-plugin-geolocation@^4.0.2"
    },
    "is_top_level": true,
    "variables": {
      "GEOLOCATION_USAGE_DESCRIPTION": "To locate you"
    }
  },
  "cordova-plugin-nativegeocoder": {
    "source": {
      "type": "registry",
      "id": "cordova-plugin-nativegeocoder@^3.2.2"
    },
    "is_top_level": true,
    "variables": {
      "LOCATION_WHEN_IN_USE_DESCRIPTION": "Use geocoder service"
    }
  },
  "cordova-plugin-add-swift-support": {
    "source": {
      "type": "registry",
      "id": "cordova-plugin-add-swift-support@2.0.2"
    },
    "is_top_level": false,
    "variables": {}
  },
  "es6-promise-plugin": {
    "source": {
      "type": "registry",
      "id": "es6-promise-plugin@^4.1.0"
    },
    "is_top_level": false,
    "variables": {}
  },
  "cordova-plugin-network-information": {
    "source": {
      "type": "registry",
      "id": "cordova-plugin-network-information@^2.0.2"
    },
    "is_top_level": true,
    "variables": {}
  },
  "cordova-plugin-email-composer": {
    "source": {
      "type": "registry",
      "id": "cordova-plugin-email-composer@^0.9.2"
    },
    "is_top_level": true,
    "variables": {
      "ANDROID_SUPPORT_V4_VERSION": "27.+"
    }
  },
  "cordova-plugin-advanced-http": {
    "source": {
      "type": "registry",
      "id": "cordova-plugin-advanced-http@2.1.1"
    },
    "is_top_level": true,
    "variables": {
      "OKHTTP_VERSION": "3.10.0"
    }
  },
  "cordova-plugin-file": {
    "source": {
      "type": "registry",
      "id": "cordova-plugin-file@>=2.0.0"
    },
    "is_top_level": false,
    "variables": {}
  },
  "com-sarriaroman-photoviewer": {
    "source": {
      "type": "registry",
      "id": "com-sarriaroman-photoviewer@^1.2.4"
    },
    "is_top_level": true,
    "variables": {}
  },
  "cordova-plugin-stripe": {
    "source": {
      "type": "registry",
      "id": "cordova-plugin-stripe@^1.5.3"
    },
    "is_top_level": true,
    "variables": {}
  },
  "card.io.cordova.mobilesdk": {
    "source": {
      "type": "registry",
      "id": "card.io.cordova.mobilesdk@2.1.0"
    },
    "is_top_level": false,
    "variables": {}
  },
  "cordova-plugin-badge": {
    "source": {
      "type": "registry",
      "id": "cordova-plugin-badge@>=0.8.5"
    },
    "is_top_level": false,
    "variables": {}
  },
  "cordova-plugin-cocoapod-support": {
    "source": {
      "type": "registry",
      "id": "cordova-plugin-cocoapod-support"
    },
    "is_top_level": false,
    "variables": {}
  },
  "cordova-plugin-inappbrowser": {
    "source": {
      "type": "registry",
      "id": "cordova-plugin-inappbrowser@^3.2.0"
    },
    "is_top_level": true,
    "variables": {}
  },
  "cordova-plugin-googlemaps": {
    "source": {
      "type": "registry",
      "id": "cordova-plugin-googlemaps@^2.7.1"
    },
    "is_top_level": true,
    "variables": {}
  },
  "ionic-plugin-deeplinks": {
    "source": {
      "type": "registry",
      "id": "ionic-plugin-deeplinks@^1.0.20"
    },
    "is_top_level": true,
    "variables": {
      "URL_SCHEME": "shop",
      "DEEPLINK_SCHEME": "http",
      "DEEPLINK_HOST": "laravelg.themes-coder.net",
      "ANDROID_PATH_PREFIX": "/",
      "ANDROID_2_PATH_PREFIX": "/",
      "ANDROID_3_PATH_PREFIX": "/",
      "ANDROID_4_PATH_PREFIX": "/",
      "ANDROID_5_PATH_PREFIX": "/",
      "DEEPLINK_2_SCHEME": " ",
      "DEEPLINK_2_HOST": " ",
      "DEEPLINK_3_SCHEME": " ",
      "DEEPLINK_3_HOST": " ",
      "DEEPLINK_4_SCHEME": " ",
      "DEEPLINK_4_HOST": " ",
      "DEEPLINK_5_SCHEME": " ",
      "DEEPLINK_5_HOST": " "
    }
  },
  "cordova-plugin-x-socialsharing": {
    "source": {
      "type": "registry",
      "id": "cordova-plugin-x-socialsharing@^5.6.5"
    },
    "is_top_level": true,
    "variables": {
      "ANDROID_SUPPORT_V4_VERSION": "24.1.1+"
    }
  },
  "cordova-plugin-whitelist": {
    "source": {
      "type": "registry",
      "id": "cordova-plugin-whitelist@^1.3.4"
    },
    "is_top_level": true,
    "variables": {}
  },
  "cordova-plugin-ionic-webview": {
    "source": {
      "type": "registry",
      "id": "cordova-plugin-ionic-webview@^4.2.1"
    },
    "is_top_level": true,
    "variables": {
      "ANDROID_SUPPORT_ANNOTATIONS_VERSION": "27.+"
    }
  },
  "onesignal-cordova-plugin": {
    "source": {
      "type": "registry",
      "id": "onesignal-cordova-plugin@^2.9.1"
    },
    "is_top_level": true,
    "variables": {}
  },
  "com.razorpay.cordova": {
    "source": {
      "type": "registry",
      "id": "com.razorpay.cordova@^1.4.10"
    },
    "is_top_level": true,
    "variables": {}
  },
  "cordova-plugin-uniquedeviceid": {
    "source": {
      "type": "registry",
      "id": "cordova-plugin-uniquedeviceid@^1.3.2"
    },
    "is_top_level": true,
    "variables": {}
  },
  "cordova-plugin-networkinterface": {
    "source": {
      "type": "registry",
      "id": "cordova-plugin-networkinterface@^2.0.0"
    },
    "is_top_level": true,
    "variables": {}
  }
}